mux32x1str.vcd
$date
	Thu May 04 15:49:34 2023
$end
$version
	Icarus Verilog
$end
$timescale
	1s
$end
$scope module mux32to1str_tb $end
$var wire 1 ! y $end
$var reg 32 " a [31:0] $end
$var reg 5 # sel [4:0] $end
$scope module dut $end
$var wire 32 $ a [31:0] $end
$var wire 5 % sel [4:0] $end
$var wire 1 & w0 $end
$var wire 1 ' w1 $end
$var wire 1 ( w10 $end
$var wire 1 ) w11 $end
$var wire 1 * w12 $end
$var wire 1 + w13 $end
$var wire 1 , w14 $end
$var wire 1 - w15 $end
$var wire 1 . w16 $end
$var wire 1 / w17 $end
$var wire 1 0 w18 $end
$var wire 1 1 w19 $end
$var wire 1 2 w2 $end
$var wire 1 3 w20 $end
$var wire 1 4 w21 $end
$var wire 1 5 w22 $end
$var wire 1 6 w23 $end
$var wire 1 7 w24 $end
$var wire 1 8 w25 $end
$var wire 1 9 w26 $end
$var wire 1 : w27 $end
$var wire 1 ; w28 $end
$var wire 1 < w29 $end
$var wire 1 = w3 $end
$var wire 1 > w4 $end
$var wire 1 ? w5 $end
$var wire 1 @ w6 $end
$var wire 1 A w7 $end
$var wire 1 B w8 $end
$var wire 1 C w9 $end
$var wire 1 ! y $end
$scope module u_mux0 $end
$var wire 1 D a $end
$var wire 1 E b $end
$var wire 1 F sel $end
$var reg 1 G y $end
$upscope $end
$scope module u_mux1 $end
$var wire 1 H a $end
$var wire 1 I b $end
$var wire 1 J sel $end
$var reg 1 K y $end
$upscope $end
$scope module u_mux2 $end
$var wire 1 L a $end
$var wire 1 M b $end
$var wire 1 N sel $end
$var reg 1 O y $end
$upscope $end
$scope module u_mux3 $end
$var wire 1 P a $end
$var wire 1 Q b $end
$var wire 1 R sel $end
$var reg 1 S y $end
$upscope $end
$scope module u_mux4 $end
$var wire 1 T a $end
$var wire 1 U b $end
$var wire 1 V sel $end
$var reg 1 W y $end
$upscope $end
$scope module u_mux5 $end
$var wire 1 X a $end
$var wire 1 Y b $end
$var wire 1 Z sel $end
$var reg 1 [ y $end
$upscope $end
$scope module u_mux6 $end
$var wire 1 \ a $end
$var wire 1 ] b $end
$var wire 1 ^ sel $end
$var reg 1 _ y $end
$upscope $end
$scope module u_mux7 $end
$var wire 1 ` a $end
$var wire 1 a b $end
$var wire 1 b sel $end
$var reg 1 c y $end
$upscope $end
$scope module u_mux8 $end
$var wire 1 d a $end
$var wire 1 e b $end
$var wire 1 f sel $end
$var reg 1 g y $end
$upscope $end
$scope module u_mux9 $end
$var wire 1 h a $end
$var wire 1 i b $end
$var wire 1 j sel $end
$var reg 1 k y $end
$upscope $end
$scope module u_mux10 $end
$var wire 1 l a $end
$var wire 1 m b $end
$var wire 1 n sel $end
$var reg 1 o y $end
$upscope $end
$scope module u_mux11 $end
$var wire 1 p a $end
$var wire 1 q b $end
$var wire 1 r sel $end
$var reg 1 s y $end
$upscope $end
$scope module u_mux12 $end
$var wire 1 t a $end
$var wire 1 u b $end
$var wire 1 v sel $end
$var reg 1 w y $end
$upscope $end
$scope module u_mux13 $end
$var wire 1 x a $end
$var wire 1 y b $end
$var wire 1 z sel $end
$var reg 1 { y $end
$upscope $end
$scope module u_mux14 $end
$var wire 1 | a $end
$var wire 1 } b $end
$var wire 1 ~ sel $end
$var reg 1 !" y $end
$upscope $end
$scope module u_mux15 $end
$var wire 1 "" a $end
$var wire 1 #" b $end
$var wire 1 $" sel $end
$var reg 1 %" y $end
$upscope $end
$scope module u_mux16 $end
$var wire 1 & a $end
$var wire 1 ' b $end
$var wire 1 &" sel $end
$var reg 1 '" y $end
$upscope $end
$scope module u_mux17 $end
$var wire 1 2 a $end
$var wire 1 = b $end
$var wire 1 (" sel $end
$var reg 1 )" y $end
$upscope $end
$scope module u_mux18 $end
$var wire 1 > a $end
$var wire 1 ? b $end
$var wire 1 *" sel $end
$var reg 1 +" y $end
$upscope $end
$scope module u_mux19 $end
$var wire 1 @ a $end
$var wire 1 A b $end
$var wire 1 ," sel $end
$var reg 1 -" y $end
$upscope $end
$scope module u_mux20 $end
$var wire 1 B a $end
$var wire 1 C b $end
$var wire 1 ." sel $end
$var reg 1 /" y $end
$upscope $end
$scope module u_mux21 $end
$var wire 1 ( a $end
$var wire 1 ) b $end
$var wire 1 0" sel $end
$var reg 1 1" y $end
$upscope $end
$scope module u_mux22 $end
$var wire 1 * a $end
$var wire 1 + b $end
$var wire 1 2" sel $end
$var reg 1 3" y $end
$upscope $end
$scope module u_mux23 $end
$var wire 1 , a $end
$var wire 1 - b $end
$var wire 1 4" sel $end
$var reg 1 5" y $end
$upscope $end
$scope module u_mux24 $end
$var wire 1 . a $end
$var wire 1 / b $end
$var wire 1 6" sel $end
$var reg 1 7" y $end
$upscope $end
$scope module u_mux25 $end
$var wire 1 0 a $end
$var wire 1 1 b $end
$var wire 1 8" sel $end
$var reg 1 9" y $end
$upscope $end
$scope module u_mux26 $end
$var wire 1 3 a $end
$var wire 1 4 b $end
$var wire 1 :" sel $end
$var reg 1 ;" y $end
$upscope $end
$scope module u_mux27 $end
$var wire 1 5 a $end
$var wire 1 6 b $end
$var wire 1 <" sel $end
$var reg 1 =" y $end
$upscope $end
$scope module u_mux28 $end
$var wire 1 7 a $end
$var wire 1 8 b $end
$var wire 1 >" sel $end
$var reg 1 ?" y $end
$upscope $end
$scope module u_mux29 $end
$var wire 1 9 a $end
$var wire 1 : b $end
$var wire 1 @" sel $end
$var reg 1 A" y $end
$upscope $end
$scope module u_mux30 $end
$var wire 1 ; a $end
$var wire 1 < b $end
$var wire 1 B" sel $end
$var reg 1 C" y $end
$upscope $end
$upscope $end
$upscope $end
$enddefinitions $end
#0
$dumpvars
1C"
0B"
0A"
0@"
1?"
0>"
0="
0<"
0;"
0:"
09"
08"
17"
06"
05"
04"
03"
02"
01"
00"
0/"
0."
0-"
0,"
0+"
0*"
0)"
0("
1'"
0&"
0%"
0$"
0#"
0""
0!"
0~
0}
0|
0{
0z
0y
0x
0w
0v
0u
0t
0s
0r
0q
0p
0o
0n
0m
0l
0k
0j
0i
0h
0g
0f
0e
0d
0c
0b
0a
0`
0_
0^
0]
0\
0[
0Z
0Y
0X
0W
0V
0U
0T
0S
0R
0Q
0P
0O
0N
0M
0L
0K
0J
0I
0H
1G
0F
0E
1D
0C
0B
0A
0@
0?
0>
0=
0<
1;
0:
09
08
17
06
05
04
03
02
01
00
0/
1.
0-
0,
0+
0*
0)
0(
0'
1&
b0 %
b1 $
b0 #
b1 "
1!
$end
#5
0D
1E
1F
1J
1N
1R
1V
1Z
1^
1b
1f
1j
1n
1r
1v
1z
1~
1$"
b10 "
b10 $
b1 #
b1 %
#10
1C"
1!
1?"
1;
17"
17
0G
0&
1K
1'
1'"
1.
0E
1H
0F
0J
0N
0R
0V
0Z
0^
0b
0f
0j
0n
0r
0v
0z
0~
0$"
1&"
1("
1*"
1,"
1."
10"
12"
14"
b100 "
b100 $
b10 #
b10 %
#15
0H
1I
1F
1J
1N
1R
1V
1Z
1^
1b
1f
1j
1n
1r
1v
1z
1~
1$"
b1000 "
b1000 $
b11 #
b11 %
#20
1A"
1<
1="
1:
0'"
0.
15"
16
0K
0'
1%"
1-
07"
07
0?"
0;
1C"
1!
0I
1#"
16"
18"
1:"
1<"
1>"
1@"
1B"
b10000000000000000000000000000000 "
b10000000000000000000000000000000 $
b11111 #
b11111 %
#25
1""
0#"
0F
0J
0N
0R
0V
0Z
0^
0b
0f
0j
0n
0r
0v
0z
0~
0$"
b1000000000000000000000000000000 "
b1000000000000000000000000000000 $
b11110 #
b11110 %
#30
1C"
1!
1A"
1<
1="
1:
1!"
1,
0%"
0-
15"
16
1}
0""
1F
1J
1N
1R
1V
1Z
1^
1b
1f
1j
1n
1r
1v
1z
1~
1$"
0&"
0("
0*"
0,"
0."
00"
02"
04"
b100000000000000000000000000000 "
b100000000000000000000000000000 $
b11101 #
b11101 %
#35
1|
0}
0F
0J
0N
0R
0V
0Z
0^
0b
0f
0j
0n
0r
0v
0z
0~
0$"
b10000000000000000000000000000 "
b10000000000000000000000000000 $
b11100 #
b11100 %
